…
S<-data2 %>%
 group_by(rhythm_name, Overall_Fam, corrected_aligned_beats) %>%
 summarise(N=n())
```

    ## `summarise()` has grouped output by 'rhythm_name', 'Overall_Fam'. You can
    ## override using the `.groups` argument.

``` r
S
```

    ## # A tibble: 141 × 4
    ## # Groups:   rhythm_name, Overall_Fam [16]
    ##    rhythm_name Overall_Fam                        corrected_aligned_beats     N
    ##    <chr>       <fct>                                                <dbl> <int>
    ##  1 Jhaptal     Culturally Familiar NICM Musicians                       1    30
    ##  2 Jhaptal     Culturally Familiar NICM Musicians                       3     3
    ##  3 Jhaptal     Culturally Familiar NICM Musicians                       4     2
    ##  4 Jhaptal     Culturally Familiar NICM Musicians                       6     5
    ##  5 Jhaptal     Culturally Familiar NICM Musicians                       8    10
    ##  6 Jhaptal     Culturally Familiar Non-Musicians                        1     7
    ##  7 Jhaptal     Culturally Familiar Non-Musicians                        2     6
    ##  8 Jhaptal     Culturally Familiar Non-Musicians                        3     8
    ##  9 Jhaptal     Culturally Familiar Non-Musicians                        4     2
    ## 10 Jhaptal     Culturally Familiar Non-Musicians                        5     8
    ## # ℹ 131 more rows
…
SS<-S %>%
 group_by(rhythm_name, corrected_aligned_beats, Overall_Fam, template) %>%
 summarise(Nsummed_per=sum(N))
```

    ## `summarise()` has grouped output by 'rhythm_name', 'corrected_aligned_beats',
    ## 'Overall_Fam'. You can override using the `.groups` argument.

``` r
SS
```

    ## # A tibble: 141 × 5
    ## # Groups:   rhythm_name, corrected_aligned_beats, Overall_Fam [141]
    ##    rhythm_name corrected_aligned_beats Overall_Fam          template Nsummed_per
    ##    <chr>                         <dbl> <fct>                   <dbl>       <int>
    ##  1 Jhaptal                           1 Culturally Familiar…        1          30
    ##  2 Jhaptal                           1 Culturally Familiar…        1           7
    ##  3 Jhaptal                           1 Culturally Unfamili…        1           6
    ##  4 Jhaptal                           1 Culturally Unfamili…        1           3
    ##  5 Jhaptal                           2 Culturally Familiar…        0           6
    ##  6 Jhaptal                           2 Culturally Unfamili…        0           2
    ##  7 Jhaptal                           2 Culturally Unfamili…        0           3
    ##  8 Jhaptal                           3 Culturally Familiar…        1           3
    ##  9 Jhaptal                           3 Culturally Familiar…        1           8
    ## 10 Jhaptal                           3 Culturally Unfamili…        1           5
    ## # ℹ 131 more rows
…
SSS<-SS %>%
 group_by(rhythm_name, corrected_aligned_beats, Overall_Fam, template, template2) %>%
 summarise(Nsummed_per2=sum(Nsummed_per))
```

    ## `summarise()` has grouped output by 'rhythm_name', 'corrected_aligned_beats',
    ## 'Overall_Fam', 'template'. You can override using the `.groups` argument.

``` r
SSS
```

    ## # A tibble: 141 × 6
    ## # Groups:   rhythm_name, corrected_aligned_beats, Overall_Fam, template [141]
    ##    rhythm_name corrected_aligned_beats Overall_Fam            template template2
    ##    <chr>                         <dbl> <fct>                     <dbl>     <dbl>
    ##  1 Jhaptal                           1 Culturally Familiar N…        1         0
    ##  2 Jhaptal                           1 Culturally Familiar N…        1         0
    ##  3 Jhaptal                           1 Culturally Unfamiliar…        1         0
    ##  4 Jhaptal                           1 Culturally Unfamiliar…        1         0
    ##  5 Jhaptal                           2 Culturally Familiar N…        0         0
    ##  6 Jhaptal                           2 Culturally Unfamiliar…        0         0
    ##  7 Jhaptal                           2 Culturally Unfamiliar…        0         0
    ##  8 Jhaptal                           3 Culturally Familiar N…        1         1
    ##  9 Jhaptal                           3 Culturally Familiar N…        1         1
    ## 10 Jhaptal                           3 Culturally Unfamiliar…        1         1
    ## # ℹ 131 more rows
    ## # ℹ 1 more variable: Nsummed_per2 <int>
…
